%YAML 1.1
%TAG !u! tag:unity3d.com,2011:
--- !u!221 &22100000
AnimatorOverrideController:
  m_ObjectHideFlags: 0
  m_CorrespondingSourceObject: {fileID: 0}
  m_PrefabInstance: {fileID: 0}
  m_PrefabAsset: {fileID: 0}
  m_Name: Rectangle Wipe(N-S)
  m_Controller: {fileID: 9100000, guid: 9fce91a9a20d9e94c9002acf4e596611, type: 2}
  m_Clips:
  - m_OriginalClip: {fileID: 7400000, guid: 08827bf5fa4e2af489e2b344d95155f6, type: 2}
    m_OverrideClip: {fileID: 7400000, guid: 12be16e77998af741adb4fc91443eea3, type: 2}
  - m_OriginalClip: {fileID: 7400000, guid: 6a4a512e3b93b074fa458de559133486, type: 2}
    m_OverrideClip: {fileID: 7400000, guid: a53046b32bc098843a2d0a95d2883197, type: 2}
